@startuml

title __BADGES's Class Diagram__\n

  namespace fr.cnam.foad.nfa035.badges {
    class fr.cnam.foad.nfa035.badges.BadgesServiceApplication {
        {static} + main()
    }
  }
  



right footer


PlantUML diagram generated by SketchIt! (https://bitbucket.org/pmesmeur/sketch.it)
For more information about this tool, please contact philippe.mesmeur@gmail.com
endfooter

@enduml
