@startuml

title __SERVICE's Class Diagram__\n

  namespace fr.cnam.foad.nfa035.badges {
    namespace service {
      interface fr.cnam.foad.nfa035.badges.service.BadgesWalletRestService {
          {abstract} + deleteBadge()
          {abstract} + getMetadata()
          {abstract} + putBadge()
          {abstract} + readBadge()
      }
    }
  }
  



right footer


PlantUML diagram generated by SketchIt! (https://bitbucket.org/pmesmeur/sketch.it)
For more information about this tool, please contact philippe.mesmeur@gmail.com
endfooter

@enduml
